[
{
  "pk": 24, 
  "model": "blogs.blog", 
  "fields": {
    "foto": "", 
    "resumen_en": "", 
    "video1": "", 
    "descripcion_en": "<p>&nbsp;</p>\r\n<div id=\"_mcePaste\" style=\"position: absolute; left: -10000px; top: 0px; width: 1px; height: 1px; overflow: hidden;\">\r\n<p><a href=\"https://github.com/fitoria/django-magicembed\" target=\"_blank\">Django Magic Embed</a> es una peque&ntilde;a aplicaci&oacute;n puglable desarrollada en simas para insertar videos y obtener su thumbnail en tus plantillas facilmente sin preocuparse por la fuente.&nbsp;</p>\r\n</div>\r\n<div id=\"_mcePaste\" style=\"position: absolute; left: -10000px; top: 0px; width: 1px; height: 1px; overflow: hidden;\">\r\n<p>&nbsp;</p>\r\n</div>\r\n<div id=\"_mcePaste\" style=\"position: absolute; left: -10000px; top: 0px; width: 1px; height: 1px; overflow: hidden;\">\r\n<p>Para su instalaci&oacute;n ve a el <a href=\"https://github.com/fitoria/django-magicembed\" target=\"_blank\">link del proyecto en github</a>&nbsp;descargalo y sigue las instrucciones del readme o puedes copiar la carpeta \"magicembed\" al tu proyecto y agregarlo a INSTALLED_APPS. &nbsp;Su uso es super sencillo, b&aacute;sicamente en tu plantilla tienes que hacer lo siguiente:&nbsp;</p>\r\n</div>\r\n<div id=\"_mcePaste\" style=\"position: absolute; left: -10000px; top: 0px; width: 1px; height: 1px; overflow: hidden;\">\r\n<p>&nbsp;</p>\r\n</div>\r\n<div id=\"_mcePaste\" style=\"position: absolute; left: -10000px; top: 0px; width: 1px; height: 1px; overflow: hidden;\">\r\n<p>&nbsp;</p>\r\n</div>\r\n<div id=\"_mcePaste\" style=\"position: absolute; left: -10000px; top: 0px; width: 1px; height: 1px; overflow: hidden;\">\r\n<p>&nbsp;</p>\r\n</div>\r\n<div id=\"_mcePaste\" style=\"position: absolute; left: -10000px; top: 0px; width: 1px; height: 1px; overflow: hidden;\">\r\n<p>&nbsp;</p>\r\n</div>\r\n<div id=\"_mcePaste\" style=\"position: absolute; left: -10000px; top: 0px; width: 1px; height: 1px; overflow: hidden;\">\r\n<p>Esto har&aacute; algo parecido a esto:</p>\r\n</div>\r\n<div id=\"_mcePaste\" style=\"position: absolute; left: -10000px; top: 0px; width: 1px; height: 1px; overflow: hidden;\">\r\n<p><a href=\"http://addac.org.ni/videos/\"><img title=\"1305131145_magic embed.png\" src=\"http://photos.simas.org.ni/2011/05/288_1305131145_magic embed.png\" alt=\"ejemplo de django magic embed\" /></a></p>\r\n</div>\r\n<div id=\"_mcePaste\" style=\"position: absolute; left: -10000px; top: 0px; width: 1px; height: 1px; overflow: hidden;\">\r\n<p>&nbsp;</p>\r\n</div>\r\n<div id=\"_mcePaste\" style=\"position: absolute; left: -10000px; top: 0px; width: 1px; height: 1px; overflow: hidden;\">\r\n<p>Pueden ver un ejemplo de su uso en esta direcci&oacute;n <a href=\"http://addac.org.ni/videos/\">http://addac.org.ni/videos/</a></p>\r\n</div>\r\n<div style=\"background-image: initial; background-attachment: initial; background-origin: initial; background-clip: initial; background-color: #ffffff;\">\r\n<p style=\"padding: 0px; margin: 0px;\"><a style=\"font-family: Verdana, Arial, 'Bitstream Vera Sans', sans-serif; font-size: 12px; line-height: normal;\" href=\"https://github.com/fitoria/django-magicembed\" target=\"_blank\">Django Magic Embed</a>&nbsp;is a little&nbsp;pluggable app made at SIMAS to embed videos and get it's thumbnails easily without worrying about it's source.&nbsp;</p>\r\n<p style=\"line-height: normal; font-family: Verdana, Arial, 'Bitstream Vera Sans', sans-serif; font-size: 12px; padding: 0px; margin: 0px;\">&nbsp;</p>\r\n<p style=\"line-height: normal; font-family: Verdana, Arial, 'Bitstream Vera Sans', sans-serif; font-size: 12px; padding: 0px; margin: 0px;\">To install just go to&nbsp;<a href=\"https://github.com/fitoria/django-magicembed\" target=\"_blank\">the github project</a>&nbsp;download and follow the instructions in the README file or simply by copying the \"magicembed\" folder to your project and add it to INSTALLED_APPS settings. &nbsp;To use it you just have to do the following:&nbsp;</p>\r\n<p style=\"line-height: normal; font-family: Verdana, Arial, 'Bitstream Vera Sans', sans-serif; font-size: 12px; padding: 0px; margin: 0px;\">&nbsp;</p>\r\n<p style=\"line-height: normal; font-family: Verdana, Arial, 'Bitstream Vera Sans', sans-serif; font-size: 12px; padding: 0px; margin: 0px;\">{% load magicembed %}<br />{{ video|magicembed:\"640x480\" }} =&gt; this embeds a video with size 640x480<br /><img src=\"{{ video|magicthumbnail }}\" alt=\"\" />&nbsp;=&gt; this loads the thumbnail</p>\r\n<p style=\"line-height: normal; font-family: Verdana, Arial, 'Bitstream Vera Sans', sans-serif; font-size: 12px; padding: 0px; margin: 0px;\">&nbsp;</p>\r\n<p style=\"line-height: normal; font-family: Verdana, Arial, 'Bitstream Vera Sans', sans-serif; font-size: 12px; padding: 0px; margin: 0px;\">&nbsp;</p>\r\n<p style=\"line-height: normal; font-family: Verdana, Arial, 'Bitstream Vera Sans', sans-serif; font-size: 12px; padding: 0px; margin: 0px;\">And this will be a result:</p>\r\n<p style=\"line-height: normal; font-family: Verdana, Arial, 'Bitstream Vera Sans', sans-serif; font-size: 12px; padding: 0px; margin: 0px;\"><a href=\"http://addac.org.ni/videos/\"><img style=\"border: 0px initial initial;\" title=\"1305131145_magic embed.png\" src=\"http://photos.simas.org.ni/2011/05/288_1305131145_magic embed.png\" alt=\"ejemplo de django magic embed\" /></a></p>\r\n<p style=\"line-height: normal; font-family: Verdana, Arial, 'Bitstream Vera Sans', sans-serif; font-size: 12px; padding: 0px; margin: 0px;\">&nbsp;</p>\r\n<p style=\"line-height: normal; font-family: Verdana, Arial, 'Bitstream Vera Sans', sans-serif; font-size: 12px; padding: 0px; margin: 0px;\">You can check it out live on &nbsp;<a href=\"http://addac.org.ni/videos/\">http://addac.org.ni/videos/</a></p>\r\n</div>\r\n<p>&nbsp;</p>\r\n<p>&nbsp;</p>\r\n<p>&nbsp;</p>\r\n<p>&nbsp;</p>", 
    "uri": "inserta-videos-facilmente-con-django-magic-embed", 
    "video2": "", 
    "fecha": "2011-05-18", 
    "idautor": 26, 
    "pie": null, 
    "blog_en": "Insert videos easily with Django Magic Embed", 
    "blog": "Inserta videos f\u00e1cilmente con Django Magic Embed", 
    "uri_en": "insert-videos-easily-with-django-magic-embed", 
    "descripcion": "<p><a href=\"https://github.com/fitoria/django-magicembed\" target=\"_blank\">Django Magic Embed</a> es una peque&ntilde;a aplicaci&oacute;n acoplable para Django desarrollada en SIMAS para insertar videos y obtener su thumbnail en las plantillas facilmente sin preocuparse por la fuente.&nbsp;</p>\r\n<p>&nbsp;</p>\r\n<p>Para su instalaci&oacute;n ve a el <a href=\"https://github.com/fitoria/django-magicembed\" target=\"_blank\">link del proyecto en github</a>&nbsp;descargalo y sigue las instrucciones del readme o copia la carpeta \"magicembed\" al &nbsp;proyecto y agregarlo a INSTALLED_APPS. &nbsp;Su uso es muy sencillo, b&aacute;sicamente en la plantilla tienes que hacer lo siguiente:&nbsp;</p>\r\n<p>&nbsp;</p>\r\n<p>{% load magicembed %}<br /> {{ video|magicembed:\"640x480\" }} =&gt; esto carga un video con la dimensiones 640x480<br /><img src=\"{{ video|magicthumbnail }}\" alt=\"\" />&nbsp;=&gt;Esto carga el thumbnail del video.</p>\r\n<p>&nbsp;</p>\r\n<p>El resultado es algo parecido a esto:</p>\r\n<p><a href=\"http://addac.org.ni/videos/\"><img title=\"1305131145_magic embed.png\" src=\"http://photos.simas.org.ni/2011/05/288_1305131145_magic embed.png\" alt=\"ejemplo de django magic embed\" /></a></p>\r\n<p>&nbsp;</p>\r\n<p>Pueden ver un ejemplo de su uso en esta direcci&oacute;n <a href=\"http://addac.org.ni/videos/\">http://addac.org.ni/videos/</a></p>", 
    "idcatblog": 3, 
    "resumen": "", 
    "tags": "test, tes2"
  }
},
{
  "pk": 25, 
  "model": "blogs.blog", 
  "fields": {
    "foto": "", 
    "resumen_en": "", 
    "video1": "", 
    "descripcion_en": "<p><span id=\"result_box\" lang=\"en\"><span title=\"Haz clic para obtener otras posibles traducciones\">The</span> <span title=\"Haz clic para obtener otras posibles traducciones\">release</span> <span title=\"Haz clic para obtener otras posibles traducciones\">of</span> <span title=\"Haz clic para obtener otras posibles traducciones\">Ubuntu</span> 11.04 <span title=\"Haz clic para obtener otras posibles traducciones\">brings</span> <span title=\"Haz clic para obtener otras posibles traducciones\">the</span> <span title=\"Haz clic para obtener otras posibles traducciones\">new</span> <span title=\"Haz clic para obtener otras posibles traducciones\">look</span> <span title=\"Haz clic para obtener otras posibles traducciones\">of</span> <span title=\"Haz clic para obtener otras posibles traducciones\">Ubuntu</span><span title=\"Haz clic para obtener otras posibles traducciones\">.</span> <span title=\"Haz clic para obtener otras posibles traducciones\">The</span> <span title=\"Haz clic para obtener otras posibles traducciones\">new desktop</span><span title=\"Haz clic para obtener otras posibles traducciones\">, a</span> <span title=\"Haz clic para obtener otras posibles traducciones\">new</span> <span title=\"Haz clic para obtener otras posibles traducciones\">application launcher and</span> <span title=\"Haz clic para obtener otras posibles traducciones\">the</span> <span title=\"Haz clic para obtener otras posibles traducciones\">new</span> <span title=\"Haz clic para obtener otras posibles traducciones\">menu</span> <span title=\"Haz clic para obtener otras posibles traducciones\">are</span> <span title=\"Haz clic para obtener otras posibles traducciones\">the biggest</span> <span title=\"Haz clic para obtener otras posibles traducciones\">changes in the</span> <span title=\"Haz clic para obtener otras posibles traducciones\">new</span> <span title=\"Haz clic para obtener otras posibles traducciones\">version</span><span title=\"Haz clic para obtener otras posibles traducciones\">.</span></span></p>\r\n<p><span lang=\"en\"><span title=\"Haz clic para obtener otras posibles traducciones\"><br /></span></span></p>\r\n<div><img title=\"1305133063_whatsnew-launcher.jpg\" src=\"http://www.ubuntu.com/sites/www.ubuntu.com/files/active/natty-consumer-pages/whatsnew-launcher.jpg\" alt=\"\" width=\"605\" height=\"403\" />\r\n<div>\r\n<p><strong>Credit:</strong> Ubuntu.com</p>\r\n<p>&nbsp;</p>\r\n</div>\r\n</div>\r\n<p><span id=\"result_box\" lang=\"en\"><span title=\"Haz clic para obtener otras posibles traducciones\">With the</span> <span title=\"Haz clic para obtener otras posibles traducciones\">new application launcher</span> <span title=\"Haz clic para obtener otras posibles traducciones\">you can access</span> <span title=\"Haz clic para obtener otras posibles traducciones\">your</span> <span title=\"Haz clic para obtener otras posibles traducciones\">favorite applications</span> <span title=\"Haz clic para obtener otras posibles traducciones\">more quickly</span> <span title=\"Haz clic para obtener otras posibles traducciones\">and easily</span><span title=\"Haz clic para obtener otras posibles traducciones\">.</span> <span title=\"Haz clic para obtener otras posibles traducciones\">The</span> <span title=\"Haz clic para obtener otras posibles traducciones\">new</span> <span title=\"Haz clic para obtener otras posibles traducciones\">menu</span> <span title=\"Haz clic para obtener otras posibles traducciones\">is another</span> <span title=\"Haz clic para obtener otras posibles traducciones\">way</span> <span title=\"Haz clic para obtener otras posibles traducciones\">to access your</span> <span title=\"Haz clic para obtener otras posibles traducciones\">application shortcuts</span> <span title=\"Haz clic para obtener otras posibles traducciones\">and</span> <span title=\"Haz clic para obtener otras posibles traducciones\">documents</span> <span title=\"Haz clic para obtener otras posibles traducciones\">by grouping them</span> <span title=\"Haz clic para obtener otras posibles traducciones\">into</span> <span title=\"Haz clic para obtener otras posibles traducciones\">categories</span> <span title=\"Haz clic para obtener otras posibles traducciones\">and</span> <span title=\"Haz clic para obtener otras posibles traducciones\">allowing you to make</span> <span title=\"Haz clic para obtener otras posibles traducciones\">searches</span> <span title=\"Haz clic para obtener otras posibles traducciones\">faster and smarter</span><span title=\"Haz clic para obtener otras posibles traducciones\">.</span></span></p>\r\n<p>&nbsp;</p>\r\n<div><img title=\"1305133063_whatsnew-launcher.jpg\" src=\"http://www.ubuntu.com/sites/www.ubuntu.com/files/active/natty-consumer-pages/whatsnew-dash.jpg\" alt=\"\" width=\"605\" height=\"403\" />\r\n<div>\r\n<p><strong>Credit: </strong>Ubuntu.com</p>\r\n</div>\r\n</div>\r\n<p>&nbsp;</p>\r\n<p><span id=\"result_box\" lang=\"en\"><span title=\"Haz clic para obtener otras posibles traducciones\">Ubuntu 11.04</span> <span title=\"Haz clic para obtener otras posibles traducciones\">gives</span> <span title=\"Haz clic para obtener otras posibles traducciones\">you</span> <span title=\"Haz clic para obtener otras posibles traducciones\">a</span> <span title=\"Haz clic para obtener otras posibles traducciones\">real way</span> <span title=\"Haz clic para obtener otras posibles traducciones\">to</span> <span title=\"Haz clic para obtener otras posibles traducciones\">manage</span> <span title=\"Haz clic para obtener otras posibles traducciones\">multiple</span> <span title=\"Haz clic para obtener otras posibles traducciones\">windows and</span> <span title=\"Haz clic para obtener otras posibles traducciones\">applications.</span> <span title=\"Haz clic para obtener otras posibles traducciones\">Simply</span> <span title=\"Haz clic para obtener otras posibles traducciones\">click on</span> <span title=\"Haz clic para obtener otras posibles traducciones\">the</span> <span title=\"Haz clic para obtener otras posibles traducciones\">icon</span> <span title=\"Haz clic para obtener otras posibles traducciones\">of</span> <span title=\"Haz clic para obtener otras posibles traducciones\">workspaces</span> <span title=\"Haz clic para obtener otras posibles traducciones\">and</span> <span title=\"Haz clic para obtener otras posibles traducciones\">can</span> <span title=\"Haz clic para obtener otras posibles traducciones\">move</span> <span title=\"Haz clic para obtener otras posibles traducciones\">easily</span> <span title=\"Haz clic para obtener otras posibles traducciones\">and manage</span> <span title=\"Haz clic para obtener otras posibles traducciones\">your</span> <span title=\"Haz clic para obtener otras posibles traducciones\">open applications</span> <span title=\"Haz clic para obtener otras posibles traducciones\">very</span> <span title=\"Haz clic para obtener otras posibles traducciones\">intuitive</span><span title=\"Haz clic para obtener otras posibles traducciones\">.</span></span></p>\r\n<p>&nbsp;</p>\r\n<div><img title=\"1305133063_whatsnew-launcher.jpg\" src=\"http://www.ubuntu.com/sites/www.ubuntu.com/files/active/natty-consumer-pages/whatsnew-workspaces.jpg\" alt=\"\" width=\"605\" height=\"403\" />\r\n<div>\r\n<p><strong>Credit:</strong> Ubuntu.com</p>\r\n</div>\r\n</div>\r\n<p>&nbsp;</p>\r\n<p>You have to try it by yourself!!!For more information go: <a href=\"http://www.ubuntu.com/\">Ubuntu.com</a></p>\r\n<p>&nbsp;</p>\r\n<p>:D</p>", 
    "uri": "ubuntu-1104-que-hay-de-nuevo", 
    "video2": "", 
    "fecha": "2011-05-18", 
    "idautor": 28, 
    "pie": null, 
    "blog_en": "Ubuntu 11.04 \u00bfWhat is new?", 
    "blog": "Ubuntu 11.04 \u00bfQu\u00e9 hay de nuevo?", 
    "uri_en": "ubuntu-1104-what-is-new", 
    "descripcion": "<div class=\"na-media na-image-normal image-70\">\r\n<div class=\"na-media na-image-left image-80\"><img title=\"1305135332_20101226131548Ubuntu-Logo1.jpg\" src=\"http://photos.simas.org.ni/2011/05/288_1305135332_20101226131548Ubuntu-Logo1.jpg\" alt=\"\" width=\"80\" height=\"80\" />\r\n<div class=\"info\">\r\n<p>&nbsp;</p>\r\n</div>\r\n</div>\r\n<p>El lanzamiento de Ubuntu 11.04 trae consigo el nuevo look de Ubuntu.  El nuevo escritorio, un nuevo lanzador de aplicaciones y el nuevo men&uacute;  son los mas grandes cambios en la nueva versi&oacute;n.</p>\r\n<p>&nbsp;</p>\r\n<p>&nbsp;</p>\r\n<p>&nbsp;</p>\r\n<p>&nbsp;</p>\r\n<p>&nbsp;</p>\r\n<p>&nbsp;</p>\r\n</div>\r\n<div class=\"na-media na-image-normal image-70\"><img title=\"1305133063_whatsnew-launcher.jpg\" src=\"http://www.ubuntu.com/sites/www.ubuntu.com/files/active/natty-consumer-pages/whatsnew-launcher.jpg\" alt=\"\" width=\"605\" height=\"403\" />\r\n<div class=\"info\">\r\n<p><strong>Credito:</strong> Foto Ubuntu.com</p>\r\n</div>\r\n</div>\r\n<p>&nbsp;</p>\r\n<p>Con el nuevo lanzador de aplicaciones podr&aacute;s acceder a tus aplicaciones favoritas de forma m&aacute;s r&aacute;pida y f&aacute;cil. El nuevo men&uacute; es otra forma de acceder a tus accesos directos de aplicaciones y documentos agrup&aacute;ndolos en categor&iacute;as y permiti&eacute;ndote realizar busquedas r&aacute;pidas e inteligentes.</p>\r\n<p>&nbsp;</p>\r\n<div class=\"na-media na-image-normal image-70\"><img title=\"1305133063_whatsnew-launcher.jpg\" src=\"http://www.ubuntu.com/sites/www.ubuntu.com/files/active/natty-consumer-pages/whatsnew-dash.jpg\" alt=\"\" width=\"605\" height=\"403\" />\r\n<div class=\"info\">\r\n<p><strong>Credito:</strong> Foto Ubuntu.com</p>\r\n</div>\r\n</div>\r\n<p>&nbsp;</p>\r\n<p>Ubuntu 11.04 te da una verdadera forma de administrar m&uacute;ltiples ventanas y aplicaciones. Simplemente tienes que dar clic en el icono de &aacute;reas de trabajo (WorkSpaces) y podr&aacute;s moverte f&aacute;cilmente y administrar tus aplicaciones abiertas de manera muy intuitiva.</p>\r\n<p>&nbsp;</p>\r\n<div class=\"na-media na-image-normal image-70\"><img title=\"1305133063_whatsnew-launcher.jpg\" src=\"http://www.ubuntu.com/sites/www.ubuntu.com/files/active/natty-consumer-pages/whatsnew-workspaces.jpg\" alt=\"\" width=\"605\" height=\"403\" />\r\n<div class=\"info\">\r\n<p><strong>Credito:</strong> Foto Ubuntu.com</p>\r\n</div>\r\n</div>\r\n<p>&nbsp;</p>\r\n<p>Ten&eacute;s que probarlo vos mismo!!! Para m&aacute;s informaci&oacute;n con&eacute;ctate a <a href=\"http://www.ubuntu.com/\">Ubuntu.com</a></p>\r\n<p>&nbsp;</p>\r\n<p>:D</p>", 
    "idcatblog": 3, 
    "resumen": "", 
    "tags": "test"
  }
},
{
  "pk": 26, 
  "model": "blogs.blog", 
  "fields": {
    "foto": "", 
    "resumen_en": "", 
    "video1": "", 
    "descripcion_en": "", 
    "uri": "drupalcamp-2011-costa-rica", 
    "video2": "", 
    "fecha": "2011-05-19", 
    "idautor": 24, 
    "pie": null, 
    "blog_en": "", 
    "blog": "DrupalCamp 2011, Costa Rica", 
    "uri_en": "", 
    "descripcion": "<p>&nbsp;</p>\r\n<div class=\"na-media na-image-normal image-68\"><img title=\"1305132280_drupalcamp2.jpg\" src=\"http://photos.simas.org.ni/2011/05/600x400_1305132280_drupalcamp2.jpg\" alt=\"\" />\r\n<div class=\"info\">\r\n<p>Logo oficial drupalcamp 2011</p>\r\n</div>\r\n</div>\r\n<p>&nbsp;</p>\r\n<p><a href=\"http://drupal-centroamerica.org/es\" target=\"_blank\">El Drupal Camp Centroam&eacute;rica &ndash; Costa Rica 2011</a>&nbsp;es el mayor evento centroamericano de Drupal, que por primera vez reunir&aacute; a m&aacute;s de 300 personas programadoras, dise&ntilde;adoras y constructoras de sitios web de diversas partes del mundo en Puntarenas, Costa Rica, los d&iacute;as 2, 3 y 4 de Junio.</p>\r\n<p>&nbsp;</p>\r\n<p>&nbsp;</p>\r\n<p>Este evento ser&aacute; un excelente lugar para intercambiar ideas y experiencias, y conocer empresas y desarrolladores de Drupal de todo el continente.   Durante este tiempo habr&aacute; una serie de conferencias, talleres y actividades para promover la integraci&oacute;n de la comunidad de Drupal a nivel regional. Es una gran oportunidad para aprender e informarse con conferencias en espa&ntilde;ol e ingl&eacute;s, compartidas por profesionales experimentados provenientes de varios pa&iacute;ses Latinoamericanos, Estados Unidos y Europa. Las&nbsp;<a href=\"http://drupal-centroamerica.org/es/inscripcion\">incripciones</a>&nbsp;aun&nbsp;est&aacute;n&nbsp;abiertas para todo el p&uacute;blico</p>\r\n<p>&nbsp;</p>\r\n<p><strong>SIMAS</strong> tendr&aacute; reprentaci&oacute;n en el evento, compartiendo la experiencia del uso de DRUPAL en proyectos &nbsp;para organizaciones&nbsp;Nicarag&uuml;enses. Ademas esta en agenda&nbsp;una conferencia que sera impartida por Byron Corrales.</p>\r\n<p>&nbsp;</p>\r\n<p>Actualmente existen posibles temas de conferencias que estan en periodo de aprobaci&oacute;n.&nbsp;</p>\r\n<p><a href=\"http://drupal-centroamerica.org/es/conferencias\">http://drupal-centroamerica.org/es/conferencias</a></p>\r\n<p>&nbsp;</p>\r\n<p>Lo que si estan confirmados son los talleres a llevarse a cabo el primer dia del evento.</p>\r\n<p><a href=\"http://drupal-centroamerica.org/es/capacitaciones\">http://drupal-centroamerica.org/es/capacitaciones</a></p>\r\n<p>&nbsp;</p>\r\n<p>Fotos de los&nbsp;&uacute;ltimos&nbsp;DrupalCamps celebrados en Guatemala y Nicaragua respectivamente</p>\r\n<p>&nbsp;</p>\r\n<div class=\"na-media na-image-left image-75\">\r\n<div class=\"info\">\r\n<p>Guatemala 2010</p>\r\n</div>\r\n</div>\r\n<div class=\"na-media na-image-left image-74\">\r\n<div class=\"info\">\r\n<p>Nicaragua 2009</p>\r\n</div>\r\n</div>\r\n<p>&nbsp;</p>\r\n<p>&nbsp;</p>\r\n<p>&nbsp;</p>\r\n<p>&nbsp;</p>", 
    "idcatblog": 3, 
    "resumen": "El Drupal Camp Centroam\u00e9rica \u2013 Costa Rica 2011 es el mayor evento centroamericano de Drupal, que por primera vez reunir\u00e1 a m\u00e1s de 300 personas programadoras, dise\u00f1adoras y constructoras de sitios web de diversas partes del mundo en Puntarenas, Costa Rica, los d\u00edas 2, 3 y 4 de Junio.\r\n\r\nEste evento ser\u00e1 un excelente lugar para intercambiar ideas y experiencias, y conocer empresas y desarrolladores de Drupal de todo el continente. ", 
    "tags": "Drupal"
  }
},
{
  "pk": 27, 
  "model": "blogs.blog", 
  "fields": {
    "foto": "", 
    "resumen_en": "", 
    "video1": "", 
    "descripcion_en": "", 
    "uri": "proyecto-fedora-15-lovelock", 
    "video2": "", 
    "fecha": "2011-05-19", 
    "idautor": 20, 
    "pie": null, 
    "blog_en": "", 
    "blog": "Proyecto Fedora 15: Lovelock", 
    "uri_en": "", 
    "descripcion": "<p>&nbsp;</p>\r\n<div class=\"na-media na-image-normal image-103\">\r\n<div class=\"info\">\r\n<p>&nbsp;</p>\r\n</div>\r\n</div>\r\n<p style=\"text-align: center;\"><img title=\"1307025274_fedora15.png\" src=\"http://photos.simas.org.ni/2011/06/600x400_1307025274_fedora15.png\" alt=\"\" /></p>\r\n<p>&nbsp;</p>\r\n<p>&nbsp;</p>\r\n<p><strong>Fedora 15 &ldquo;Lovelock&rdquo; ya est&aacute; disponible para su descarga</strong>, la primera gran distribuci&oacute;n en incorporar <span>GNOME</span> 3.</p>\r\n<p>&nbsp;</p>\r\n<p><strong><span>GNOME</span> 3 es la principal novedad de Fedora 15 &ldquo;Lovelock&rdquo;</strong>, trae grandes cambios algunos de ellos son:</p>\r\n<p>&nbsp;</p>\r\n<p>Ofim&aacute;tica:&nbsp;Traer&aacute;&nbsp;<strong>LibreOffice</strong> la suite por defecto para trabajos de oficina o de casa.</p>\r\n<p>&nbsp;</p>\r\n<p>Escritorios: En este caso&nbsp;traer&aacute;&nbsp;varios Escritorio pero el m&aacute;s llamativo sera <strong>Gnome 3 </strong>con Gnome Shell la ultima versi&oacute;n de este escritorio mas usado en el Mundo del Software Libre,&nbsp;Tambi&eacute;n traera <strong>KDE 4.6</strong>, <strong>Sugar 0.92</strong>, <strong>Xfce 4.8</strong></p>\r\n<p>&nbsp;</p>\r\n<p>Navegador: Traera la ultima version del navegar <strong>Mozilla Firefox 4</strong></p>\r\n<p>&nbsp;</p>\r\n<p>Seguridad: <strong>Dinamic Firewall</strong> esta es la gesti&oacute;n de cortafuegos dinamicos con D-bus, Network Manager ahora utilizara el servidor de nombres <strong>BIND</strong> como resoluci&oacute;n de&nbsp;<span><strong>DNSSEC</strong></span>&nbsp;(<span>DNS</span>&nbsp;Security Extensions)</p>\r\n<p>&nbsp;</p>\r\n<p>Virtualizaci&oacute;n: Tenemos la herramienta de linea de comandos&nbsp;<strong>BoxGrinder</strong>&nbsp;para la creaci&oacute;n de im&aacute;genes virtuales destinadas a varias infraestructuras de virtualizaci&oacute;n (<span>KVM</span>, Xen, VMware, EC2),&nbsp;<strong>compresi&oacute;n LZMA</strong>&nbsp;para disminuir el tama&ntilde;o, o incluir m&aacute;s paquetes, en las im&aacute;genes Live y el m&eacute;todo de almacenamiento&nbsp;<strong>LessFS</strong>&nbsp;que reduce el tama&ntilde;o de las copias de seguridad en disco y en particular en m&aacute;quinas virtuales.</p>\r\n<p>&nbsp;</p>\r\n<p>Descargar <a href=\"http://fedoraproject.org/\">http://fedoraproject.org/</a></p>\r\n<p>&nbsp;</p>\r\n<p>&nbsp;</p>\r\n<p>&nbsp;</p>\r\n<p>&nbsp;</p>", 
    "idcatblog": 3, 
    "resumen": "Ya esta lista la versi\u00f3n actualizada de Fedora en su versi\u00f3n 15 con nombre de c\u00f3digo \"Lovelock\", esta versi\u00f3n traer\u00e1 grandes cambios algunos de ellos son:\r\n\r\nOfim\u00e1tica: Traer\u00e1 LibreOffice la suite por defecto para trabajos de oficina o de casa.", 
    "tags": ""
  }
},
{
  "pk": 28, 
  "model": "blogs.blog", 
  "fields": {
    "foto": "", 
    "resumen_en": "", 
    "video1": "", 
    "descripcion_en": "<p>&nbsp;</p>\r\n<p>&nbsp;</p>\r\n<p>&nbsp;</p>\r\n<p>The deal will see Microsoft pay $8.5bn (&pound;5.2bn) for Skype, making it Microsoft's largest acquisition.</p>\r\n<p>&nbsp;</p>\r\n<p>&nbsp;</p>\r\n<p>Luxembourg-based Skype has 663 million global users. In August last year it announced plans for a share flotation, but this was subsequently put on hold.</p>\r\n<p>&nbsp;</p>\r\n<p>Internet auction house eBay bought Skype for $2.6bn in 2006, before selling 70% of it in 2009 for $2bn.</p>\r\n<p>&nbsp;</p>\r\n<p>This majority stake was bought by a group of investors led by private equity firms Silver Lake and Andreessen Horowit.</p>\r\n<p>&nbsp;</p>\r\n<p><a href=\"http://www.bbc.co.uk/news/business-13343600\">Read more...</a></p>", 
    "uri": "skype-comprado-por-microsoft", 
    "video2": "", 
    "fecha": "2011-05-11", 
    "idautor": 17, 
    "pie": null, 
    "blog_en": "Microsoft confirms takeover of Skype", 
    "blog": "Skype comprado por Microsoft", 
    "uri_en": "microsoft-confirms-takeover-of-skype", 
    "descripcion": "<p>&nbsp;</p>\r\n<div class=\"na-media na-image-left image-94\"><img title=\"1306043602_skype-microsoft.jpg\" src=\"http://photos.simas.org.ni/2011/05/288_1306043602_skype-microsoft.jpg\" alt=\"\" />\r\n<div class=\"info\">\r\n<p>www.skype.com</p>\r\n</div>\r\n</div>\r\n<p>A todos los usuarios de skype estar atentos. El acuerdo ya fue confirmado por el consejo de accionistas de ambas compa&ntilde;&iacute;as.</p>\r\n<p>&nbsp;</p>\r\n<p>&nbsp;</p>\r\n<p>La semana pasada la agencia de noticias Reuters inform&oacute; que Skype tambi&eacute;n estar&iacute;a en conversaciones con Google y Facebook para una posible adquisici&oacute;n, fusi&oacute;n o proyecto conjunto.</p>\r\n<p>&nbsp;</p>\r\n<p>La empresa -que cuenta con 663 millones de usuarios en el mundo- ha retrasado su oferta p&uacute;blica de acciones en la bolsa que anunci&oacute; en agosto pasado.</p>\r\n<p>&nbsp;</p>\r\n<p><a href=\"http://www.bbc.co.uk/mundo/noticias/2011/05/110510_0936_skype_venta_microsoft_facebook_google_dc.shtml\">Ver nota completa en BBC</a></p>", 
    "idcatblog": 3, 
    "resumen": "A todos los usuarios de skype estar atentos. El acuerdo ya fue confirmado por el consejo de accionistas de ambas compa\u00f1\u00edas.La semana pasada la agencia de noticias Reuters inform\u00f3 que Skype tambi\u00e9n estar\u00eda en conversaciones con Google y Facebook para una posible adquisici\u00f3n, fusi\u00f3n o proyecto conjunto.", 
    "tags": "test, tes2"
  }
},
{
  "pk": 30, 
  "model": "blogs.blog", 
  "fields": {
    "foto": "", 
    "resumen_en": "", 
    "video1": "", 
    "descripcion_en": "", 
    "uri": "consejos-para-navegar-con-seguridad-en-internet", 
    "video2": "", 
    "fecha": "2011-06-28", 
    "idautor": 24, 
    "pie": null, 
    "blog_en": "", 
    "blog": "Consejos para navegar con seguridad en internet", 
    "uri_en": "", 
    "descripcion": "<p>&nbsp;</p>\r\n<div class=\"na-media na-image-right image-154\"><img title=\"1309322327_1208422_89744071.redimensionado.jpg\" src=\"http://photos.simas.org.ni/2011/06/288_1309322327_1208422_89744071.redimensionado.jpg\" alt=\"\" />\r\n<div class=\"info\">\r\n<p>Tomada de: www.sxc.hu</p>\r\n</div>\r\n</div>\r\n<p>Con la cantidad de estafas, enga&ntilde;os, spam, correos fraudulentos, loter&iacute;as falsas, invitaciones raras, etc, que circulan por la red, no est&aacute; de mas mencionar ciertas medidas b&aacute;sicas de seguridad, que deben de verse de caracter obligatorio para prevenir cualquier ataque ya sea a tu sistema o a tu identidad.</p>\r\n<p>&nbsp;</p>\r\n<h3>Generales</h3>\r\n<p>&nbsp;</p>\r\n<p><strong>Mantener actualizado el navegador web</strong>. Una tarea que ha de llevarse a cabo de forma sistem&aacute;tica, de forma independiente a los sitios a los que accedamos y al navegador utilizado.</p>\r\n<p>&nbsp;</p>\r\n<p><strong>Crear contrase&ntilde;as robustas</strong>. Es fundamental crear una contrase&ntilde;a que no est&eacute; relacionada con ninguna otra cuenta y menos a&uacute;n con las que se utilizan en banca online. Deber&iacute;a ser &uacute;nica con respecto a otras que tengamos y, adem&aacute;s, es importante cambiarla de forma habitual.</p>\r\n<ol> </ol>\r\n<p><strong>Cerrar sesi&oacute;n.</strong> Es muy&nbsp;com&uacute;n&nbsp;dejar abiertas nuestras cuentas de correo electr&oacute;nico o perfiles de redes sociales en computadoras de terceros y peor aun cuando son computadoras de uso p&uacute;blico. Ya que no podemos tener confianza en la siguiente persona que usar&aacute; el equipo, se debe de prestar mucha atenci&oacute;n en cerrar todo tipo de sesi&oacute;n e inclusive borrar el historial y archivos temporales del navegador usado.</p>\r\n<p>&nbsp;</p>\r\n<p><strong>Navegaci&oacute;n inteligente.</strong>&nbsp;Esto significa mantener al margen la privacidad de toda la informaci&oacute;n personal. He aqu&iacute; algunos ejemplos de informaci&oacute;n personal que nunca deber&iacute;as facilitar por Internet, ya que&nbsp;com&uacute;nmente&nbsp;podri&aacute;n ser de acceso p&uacute;blico:&nbsp;tu direcci&oacute;n,&nbsp;tu n&uacute;mero de tel&eacute;fono,&nbsp;tu n&uacute;mero de la Seguridad Social,&nbsp;tu <strong>contrase&ntilde;a</strong>,&nbsp;nombres de familiares tuyos,&nbsp;n&uacute;meros de tarjetas de cr&eacute;dito</p>\r\n<p>&nbsp;</p>\r\n<p><strong>Usar sistemas operativos seguros</strong>. En SIMAS como parte de nuestra&nbsp;filosof&iacute;a&nbsp;y compromiso con la comunidad, recomendamos el uso de sistemas operativos Gnu/Linux como <a href=\"http://fedoraproject.org\" target=\"_blank\">FEDORA</a> y <a href=\"http://www.ubuntu.com\" target=\"_blank\">UBUNTU</a>. Son sistemas fundamentados en la libertad de uso de los usuarios y por ende gratuitos, pero&nbsp;destac&aacute;ndose&nbsp;tambi&eacute;n en su seguridad y&nbsp;simpleza&nbsp;para cualquier tipo de usuario.</p>\r\n<p>&nbsp;</p>\r\n<h3>En Facebook</h3>\r\n<p>&nbsp;</p>\r\n<div class=\"na-media na-image-right image-155\"><img title=\"1309323786_0617-faceebok_full_600.jpg\" src=\"http://photos.simas.org.ni/2011/06/288_1309323786_0617-faceebok_full_600.jpg\" alt=\"\" />\r\n<div class=\"info\">\r\n<p>tomada de: www.csmonitor.com</p>\r\n</div>\r\n</div>\r\n<p><strong>Asegurarnos de que nos encontramos en la p&aacute;gina real de Facebook</strong>. Es f&aacute;cil enviar enlaces a trav&eacute;s de un correo electr&oacute;nico que realmente redireccionan a otros sitios fraudulentos del tipo <em>www.facebook.algo.com</em>. Tambi&eacute;n puede ocurrir cuando realizamos una b&uacute;squeda en Google o similares.</p>\r\n<p>&nbsp;</p>\r\n<p><strong>Establecer par&aacute;metros de privacidad en modo seguro. </strong>Cuando se abre una cuenta en Facebook, la aplicaci&oacute;n elige por defecto los par&aacute;metros m&aacute;s abiertos, por lo que es recomendable acceder a su configuraci&oacute;n y aumentar el nivel de privacidad.</p>\r\n<p>&nbsp;</p>\r\n<p><strong>Cerrar Sesi&oacute;n luego de comentar o dar \"Me gusta\".</strong> En la actualidad es muy com&uacute;n la integraci&oacute;n de los sitios web con la funcionalidad de redes sociales. El sitio de <a href=\"http://www.simas.org.ni\">SIMAS</a> es un buen ejemplo de ello ya que el usuario tiene la capacidad de dar \"Me gusta\" al contenido e incluso realizar un comentario con tu perfil de facebook. Pero es muy importante mencionar que para poder realizar estas acciones se solicitar&aacute; la autenticaci&oacute;n en la red social y por lo tanto nuestra sesi&oacute;n queda abierta. A como&nbsp;hab&iacute;amos&nbsp;mencionado en el consejo anterior recomendamos que al final se debe entrar al sitio de facebook y cerrar cualquier sesi&oacute;n que tengamos abierta.</p>\r\n<p>&nbsp;</p>\r\n<p>&nbsp;</p>\r\n<p>Referencias:</p>\r\n\r\n<p><a href=\"http://www.eweekeurope.es/noticias/noticias-buscadores/seguridad-en-facebook-10-consejos-para-estar-protegido-737\">http://www.eweekeurope.es/noticias/noticias-buscadores/seguridad-en-facebook-10-consejos-para-estar-protegido-737</a></p>\r\n<p><a href=\"http://kidshealth.org/teen/en_espanol/seguridad/internet_safety_esp.html\">http://kidshealth.org/teen/en_espanol/seguridad/internet_safety_esp.html</a></p>\r\n<p><a href=\"http://www.ocu.org/telefonia-e-internet/10-consejos-para-mejorar-su-seguridad-en-internet-s439534.htm\">http://www.ocu.org/telefonia-e-internet/10-consejos-para-mejorar-su-seguridad-en-internet-s439534.htm</a></p>\r\n\r\n<p>&nbsp;</p>\r\n<p>&nbsp;</p>", 
    "idcatblog": 3, 
    "resumen": "El creciente uso de las Redes sociales ha aumentado tambi\u00e9n el n\u00famero de infecciones y robos de identidad de parte de usuarios maliciosos. Es por ello que deseamos compartir algunos consejos para que tu experiencia en la web sea mas segura y productiva.", 
    "tags": "seguridad, tic"
  }
},
{
  "pk": 31, 
  "model": "blogs.blog", 
  "fields": {
    "foto": "", 
    "resumen_en": "As of Wednesday June 29 Nicaraguans have the opportunity to enjoy the new Google social network, called Google +. It is a new alternative social network that is aimed to compete directly with Facebook", 
    "video1": "", 
    "descripcion_en": "<p>As of Wednesday June 29 Nicaraguans have the opportunity to enjoy the new Google social network, called Google +. It is a new alternative social network that is aimed to compete directly with Facebook.</p>\r\n<p>&nbsp;</p>\r\n<div class=\"na-media na-image-right image-161\"><img title=\"1309450041_Google+-la-nueva-red-social-de-Google1.jpg\" src=\"http://photos.simas.org.ni/2011/06/288_1309450041_Google+-la-nueva-red-social-de-Google1.jpg\" alt=\"\" />\r\n<div class=\"info\">\r\n<p>image by: android-so.com</p>\r\n</div>\r\n</div>\r\n<p><a href=\"http://google.com/+\" target=\"_blank\">Google+</a> provides a new logic in organizing your friends and content. Now we have something called Circles, which allows you to choose what kind of person you want your content available.</p>\r\n<p>&nbsp;</p>\r\n<p>This new social network is seamlessly integrated with other Google services such as YouTube videos and photos from Picasa, you can also link it with the accounts of other social networks such as Twitter, Facebook, Quora, etc.</p>\r\n<p>&nbsp;</p>\r\n<p>Another important feature that stands out is the opportunity to create group conversations rooms with video and chat from your friends call Hangout circles. Very similar to what is achieved in the latest versions of Skype, but with distinguishing features such as YouTube videos to share with all participants simultaneously.</p>\r\n<p>&nbsp;</p>\r\n<div class=\"na-media na-image-normal image-162\"><img title=\"1309451521_Pantallazo.jpg\" src=\"http://photos.simas.org.ni/2011/06/600x400_1309451521_Pantallazo.jpg\" alt=\"\" />\r\n<div class=\"info\">\r\n<p>Hangout preview</p>\r\n</div>\r\n</div>\r\n<p>To access Google + currently by invitation only but will soon be available to the public. The address is <a href=\"http://google.com/+\" target=\"_blank\">http://plus.google.com/</a> or to <a href=\"http://google.com/+\" target=\"_blank\">http://google.com/+</a></p>\r\n<p>&nbsp;</p>\r\n<p>\r\n<object width=\"560\" height=\"349\">\r\n<param name=\"movie\" value=\"http://www.youtube.com/v/-FXn11l7TAI?version=3&amp;hl=es_MX\" />\r\n<param name=\"allowFullScreen\" value=\"true\" />\r\n<param name=\"allowscriptaccess\" value=\"always\" /><embed type=\"application/x-shockwave-flash\" width=\"560\" height=\"349\" src=\"http://www.youtube.com/v/-FXn11l7TAI?version=3&amp;hl=es_MX\" allowscriptaccess=\"always\" allowfullscreen=\"true\"></embed>\r\n</object>\r\n</p>", 
    "uri": "la-nueva-red-social-google-ahora-disponible-en-nicaragua", 
    "video2": "", 
    "fecha": "2011-06-30", 
    "idautor": 24, 
    "pie": null, 
    "blog_en": "The new social network Google+ now available in Nicaragua", 
    "blog": "La nueva red social Google+ ahora disponible en Nicaragua", 
    "uri_en": "the-new-social-network-google-now-available-in-nicaragua", 
    "descripcion": "<p>&nbsp;</p>\r\n<div class=\"na-media na-image-right image-161\"><img title=\"1309450041_Google+-la-nueva-red-social-de-Google1.jpg\" src=\"http://photos.simas.org.ni/2011/06/288_1309450041_Google+-la-nueva-red-social-de-Google1.jpg\" alt=\"\" />\r\n<div class=\"info\">\r\n<p>tomada de: android-so.com</p>\r\n</div>\r\n</div>\r\n<p>A partir del Mi&eacute;rcoles 29 de Junio los Nicarag&uuml;enses tienen la oportunidad de disfrutar de la nueva red social de Google, llamada Google+. Es una nueva alternativa de red social que esta dirigida a competir directamente con el mercado de Facebook.</p>\r\n<p>&nbsp;</p>\r\n<p><a href=\"http://google.com/+\" target=\"_blank\">Google+</a> aporta una nueva l&oacute;gica en la organizaci&oacute;n de tus amistades y del contenido que ellos p&uacute;blican. Ahora se tiene algo llamado <strong>Circles(c&iacute;rculos)</strong>, lo cual te permite escoger a que tipo de personas quieres que tu contenido este disponible.</p>\r\n<p>&nbsp;</p>\r\n<p>Esta nueva red social se integra perfectamente con los otros servicios de Google, como videos de Youtube y fotos de Picasa, adem&aacute;s puedes enlazarlo con las cuentas de tus otras redes sociales tales como Twitter, Facebook, Quora, etc.</p>\r\n<p>&nbsp;</p>\r\n<p>Otra importante caracter&iacute;stica que se destaca es la oportunidad de crear salas grupales de conversaciones con video y chat, a partir de tus circulos amigos, llamadas <strong>Hangout</strong>. Muy parecido a lo que se logra en las &uacute;ltimas versiones de skype, pero diferenci&aacute;ndola con funcionalidades como poder compartir videos de youtube con todos los participantes de forma simultanea.</p>\r\n<p>&nbsp;</p>\r\n<div class=\"na-media na-image-normal image-162\"><img title=\"1309451521_Pantallazo.jpg\" src=\"http://photos.simas.org.ni/2011/06/600x400_1309451521_Pantallazo.jpg\" alt=\"\" />\r\n<div class=\"info\">\r\n<p>Demostraci&oacute;n de conversaci&oacute;n con Hangout</p>\r\n</div>\r\n</div>\r\n<p>&nbsp;</p>\r\n<p>Para entrar a Google+ actualmente se requiere invitaci&oacute;n pero pronto estar&aacute; disponible para todo p&uacute;blico. La direcci&oacute;n es <a href=\"http://google.com/+\" target=\"_blank\">http://plus.google.com/</a> o bien a <a href=\"http://google.com/+\" target=\"_blank\">http://google.com/+</a></p>\r\n<p>&nbsp;</p>\r\n<p>\r\n<object width=\"560\" height=\"349\">\r\n<param name=\"movie\" value=\"http://www.youtube.com/v/-FXn11l7TAI?version=3&amp;hl=es_MX\" />\r\n<param name=\"allowFullScreen\" value=\"true\" />\r\n<param name=\"allowscriptaccess\" value=\"always\" /><embed type=\"application/x-shockwave-flash\" width=\"560\" height=\"349\" src=\"http://www.youtube.com/v/-FXn11l7TAI?version=3&amp;hl=es_MX\" allowfullscreen=\"true\" allowscriptaccess=\"always\"></embed>\r\n</object>\r\n</p>", 
    "idcatblog": 3, 
    "resumen": "A partir del Mi\u00e9rcoles 29 de Junio los Nicarag\u00fcenses tienen la oportunidad de disfrutar de la nueva red social de Google, llamada Google+. Es una nueva alternativa de red social que esta dirigida a competir directamente con el mercado de Facebook.", 
    "tags": "Google, Red Social"
  }
},
{
  "pk": 32, 
  "model": "blogs.blog", 
  "fields": {
    "foto": "", 
    "resumen_en": "Annually Python community conferences are held worldwide called  Python Conference (PyCon), with PyCon US being the biggest. Each year these conferences have been recorded and soon after released on video on Blip.tv. To learn more and see the latest in the development of Python you can watch the videos here.", 
    "video1": "", 
    "descripcion_en": "<p>\r\n<p style=\"line-height: normal; font-family: Verdana, Arial, 'Bitstream Vera Sans', sans-serif; font-size: 12px; padding: 0px; margin: 0px;\"><span title=\"Click for alternate translations\">&nbsp;</span></p>\r\n<div class=\"na-media na-image-left image-177\"><img title=\"1310051990_pycon.gif\" src=\"http://photos.simas.org.ni/2011/07/288_1310051990_pycon.gif\" alt=\"\" />\r\n<div class=\"info\">\r\n<p>&nbsp;</p>\r\n</div>\r\n</div>\r\n<div style=\"background-image: initial; background-attachment: initial; background-origin: initial; background-clip: initial; background-color: #ffffff; background-position: initial initial; background-repeat: initial initial;\"></div>\r\n<div style=\"background-image: initial; background-attachment: initial; background-origin: initial; background-clip: initial; background-color: #ffffff; background-position: initial initial; background-repeat: initial initial;\"></div>\r\n<div style=\"background-image: initial; background-attachment: initial; background-origin: initial; background-clip: initial; background-color: #ffffff; background-position: initial initial; background-repeat: initial initial;\"></div>\r\n<div style=\"background-image: initial; background-attachment: initial; background-origin: initial; background-clip: initial; background-color: #ffffff; background-position: initial initial; background-repeat: initial initial;\"></div>\r\n<div style=\"background-image: initial; background-attachment: initial; background-origin: initial; background-clip: initial; background-color: #ffffff; background-position: initial initial; background-repeat: initial initial;\"></div>\r\n<div style=\"background-image: initial; background-attachment: initial; background-origin: initial; background-clip: initial; background-color: #ffffff; background-position: initial initial; background-repeat: initial initial;\"></div>\r\n<div style=\"background-image: initial; background-attachment: initial; background-origin: initial; background-clip: initial; background-color: #ffffff; background-position: initial initial; background-repeat: initial initial;\"></div>\r\n<div style=\"background-image: initial; background-attachment: initial; background-origin: initial; background-clip: initial; background-color: #ffffff; background-position: initial initial; background-repeat: initial initial;\"></div>\r\n<div style=\"background-image: initial; background-attachment: initial; background-origin: initial; background-clip: initial; background-color: #ffffff; background-position: initial initial; background-repeat: initial initial;\"></div>\r\n<div style=\"background-image: initial; background-attachment: initial; background-origin: initial; background-clip: initial; background-color: #ffffff; background-position: initial initial; background-repeat: initial initial;\"></div>\r\n<div style=\"background-image: initial; background-attachment: initial; background-origin: initial; background-clip: initial; background-color: #ffffff; background-position: initial initial; background-repeat: initial initial;\"></div>\r\n<div style=\"background-image: initial; background-attachment: initial; background-origin: initial; background-clip: initial; background-color: #ffffff; background-position: initial initial; background-repeat: initial initial;\"></div>\r\n<div style=\"background-image: initial; background-attachment: initial; background-origin: initial; background-clip: initial; background-color: #ffffff; background-position: initial initial; background-repeat: initial initial;\"></div>\r\n<div style=\"background-image: initial; background-attachment: initial; background-origin: initial; background-clip: initial; background-color: #ffffff; background-position: initial initial; background-repeat: initial initial;\"></div>\r\n<div style=\"background-image: initial; background-attachment: initial; background-origin: initial; background-clip: initial; background-color: #ffffff; background-position: initial initial; background-repeat: initial initial;\">Annually&nbsp;<span title=\"Click for alternate translations\">Python</span>&nbsp;<span title=\"Click for alternate translations\">community</span>&nbsp;<span title=\"Click for alternate translations\">conferences</span>&nbsp;<span title=\"Click for alternate translations\">are held</span>&nbsp;<span title=\"Click for alternate translations\">worldwide called&nbsp;</span>&nbsp;<a title=\"pycon\" href=\"http://pycon.org\"><span title=\"Click for alternate translations\">Python Conference</span>&nbsp;<span title=\"Click for alternate translations\">(</span><span title=\"Click for alternate translations\">PyCon</span></a><span title=\"Click for alternate translations\"><a title=\"pycon\" href=\"http://pycon.org\">)</a>, with PyCon US being the</span>&nbsp;biggest<span title=\"Click for alternate translations\">.</span>&nbsp;<span title=\"Click for alternate translations\">Each year</span>&nbsp;<span title=\"Click for alternate translations\">these conferences</span>&nbsp;<span title=\"Click for alternate translations\">have been</span>&nbsp;<span title=\"Click for alternate translations\">recorded and</span>&nbsp;<span title=\"Click for alternate translations\">soon after</span>&nbsp;<span title=\"Click for alternate translations\">released</span>&nbsp;<span title=\"Click for alternate translations\">on video on&nbsp;</span><span title=\"Click for alternate translations\">Blip.tv.</span>&nbsp;<span title=\"Click for alternate translations\">To learn</span>&nbsp;<span title=\"Click for alternate translations\">more and</span>&nbsp;<span title=\"Click for alternate translations\">see the latest in</span>&nbsp;<span title=\"Click for alternate translations\">the development of</span>&nbsp;<span title=\"Click for alternate translations\">Python you can</span>&nbsp;<span title=\"Click for alternate translations\">watch the <a title=\"pycon us videos\" href=\"http://blip.tv/pycon-us-videos-2009-2010-2011\">videos</a></span><a title=\"pycon us videos\" href=\"http://blip.tv/pycon-us-videos-2009-2010-2011\">&nbsp;</a><span title=\"Click for alternate translations\"><a title=\"pycon us videos\" href=\"http://blip.tv/pycon-us-videos-2009-2010-2011\">here</a>.</span></div>\r\n<p>&nbsp;</p>\r\n<p style=\"line-height: normal; font-family: Verdana, Arial, 'Bitstream Vera Sans', sans-serif; font-size: 12px; padding: 0px; margin: 0px;\">&nbsp;<br /><span title=\"Click for alternate translations\">Similarly, the</span>&nbsp;<a title=\"Django project\" href=\"http://djangoproject.org\"><span title=\"Click for alternate translations\">Django</span>&nbsp;<span title=\"Click for alternate translations\">project</span></a>&nbsp;<span title=\"Click for alternate translations\">has a habit</span>&nbsp;<span title=\"Click for alternate translations\">similar</span>&nbsp;<span title=\"Click for alternate translations\">to upload</span>&nbsp;<span title=\"Click for alternate translations\">videos of</span>&nbsp;<span title=\"Click for alternate translations\">lectures to</span>&nbsp;<span title=\"Click for alternate translations\">Blip.&nbsp;</span><span title=\"Click for alternate translations\">For example</span>&nbsp;<span title=\"Click for alternate translations\">here</span>&nbsp;<span title=\"Click for alternate translations\">is</span>&nbsp;<span title=\"Click for alternate translations\"><a title=\"DjangoCon Europe\" href=\"http://blip.tv/djangocon-europe-2011/\">DjancoCon Europe 2011</a>.</span></p>\r\n</p>", 
    "uri": "conferencias-en-video-sobre-pythondjango", 
    "video2": "", 
    "fecha": "2011-07-07", 
    "idautor": 26, 
    "pie": null, 
    "blog_en": "Python/Django conferences videos", 
    "blog": "Conferencias en video sobre Python/Django.", 
    "uri_en": "pythondjango-conferences-videos", 
    "descripcion": "<p><img style=\"min-height: 150px; padding: 0px; margin: 0px; border: 0px initial initial;\" title=\"1310051990_pycon.gif\" src=\"http://photos.simas.org.ni/2011/07/288_1310051990_pycon.gif\" alt=\"\" /></p>\r\n<p>&nbsp;</p>\r\n<p>Anualmente en la comunidad Python se realizan varias conferencias alrededor del mundo demonominadas<a title=\"pycon\" href=\"http://www.pycon.org/\"> Python Conferences (PyCon)</a>, siendo la mas concurrida PyCon US. A&ntilde;o con a&ntilde;o estas conferencias se han venido grabando y poco despu&eacute;s de concluidas se liberan en video en Blip.tv. Si deseas aprender mas y ver lo &uacute;ltimo en el desarrollo de Python puedes ver los <a title=\"pycon videos\" href=\"http://blip.tv/pycon-us-videos-2009-2010-2011\">videos ac&aacute;</a>.</p>\r\n<p>&nbsp;</p>\r\n<p>De igual manera el proyecto Django tiene la costumbre similar de subir los videos de las conferencias a Blip. Por ejemplo aca est&aacute; <a title=\"DjangoCon Europe\" href=\"http://blip.tv/djangocon-europe-2011/\">DjancoCon Europe 2011</a>.</p>\r\n<p>&nbsp;</p>", 
    "idcatblog": 3, 
    "resumen": "Anualmente en la comunidad Python se realizan varias conferencias alrededor del mundo demonominadas Python Conferences (PyCon), siendo la mas concurrida PyCon US. A\u00f1o con a\u00f1o estas conferencias se han venido grabando y poco despu\u00e9s de concluidas se liberan en video en Blip.tv. Si deseas aprender mas y ver lo \u00faltimo en el desarrollo de Python puedes ver los videos ac\u00e1.", 
    "tags": "python, django, video"
  }
},
{
  "pk": 33, 
  "model": "blogs.blog", 
  "fields": {
    "foto": "", 
    "resumen_en": "", 
    "video1": "", 
    "descripcion_en": "", 
    "uri": "aplicaciones-para-laptops-xo-desarrolladas-en-nicaragua", 
    "video2": "", 
    "fecha": "2011-07-21", 
    "idautor": 24, 
    "pie": null, 
    "blog_en": "", 
    "blog": "Aplicaciones para laptops XO desarrolladas en Nicaragua", 
    "uri_en": "", 
    "descripcion": "<p>&nbsp;</p>\r\n<div class=\"na-media na-image-left image-189\"><img title=\"1311270749_2011-02-15 10.08.04.jpg\" src=\"http://photos.simas.org.ni/2011/07/288_1311270749_2011-02-15 10.08.04.jpg\" alt=\"\" />\r\n<div class=\"info\">\r\n<p>Foto por: Byron Corrales</p>\r\n<p>Evento Fundaci&oacute;n Zamora Ter&aacute;n 2010</p>\r\n</div>\r\n</div>\r\n<p>Nicaragua adem&aacute;s de presentarse como un modelo centro americano en la distribuci&oacute;n y capacitaci&oacute;n en el uso de computadoras XO en diferentes escuelas del pa&iacute;s, ahora tambi&eacute;n se destaca creando nuevos juegos para esta plataforma y localizarlos a las necesidades de las escuelas primarias del pa&iacute;s.</p>\r\n<p>&nbsp;</p>\r\n<p>El programa educativo una computadora por ni&ntilde;o (<a href=\"http://one.laptop.org/\" target=\"_blank\">OLPC</a>) es liderado por la <a href=\"http://www.fundacionzt.org/fzt/index.htm\" target=\"_blank\">Fundaci&oacute;n Zamora Ter&aacute;n</a>, la cual se encarga de la distribuci&oacute;n de computadoras XO, la conectividad a internet y la capacitaci&oacute;n a docentes de las escuelas primarias de Nicaragua.</p>\r\n<p>&nbsp;</p>\r\n<p>Los ni&ntilde;os beneficiados por el programa, ahora pueden realizar sus tareas y trabajos de investigaci&oacute;n haciendo uso de todas las herramienteas y aplicaciones que les proporciona su computadora personal. En el informe presentado por la fundaci&oacute;n en el a&ntilde;o 2010 se hablaba de una cantidad de 12 mil computadoras entregadas a lo largo del pa&iacute;s y la mitad de estas ubicadas exclusivamente en la regi&oacute;n del caribe.</p>\r\n<p>&nbsp;</p>\r\n<p>Como parte del compromiso empresarial de Guegue Eduaci&oacute;n y la fundaci&oacute;n Zamora Ter&aacute;n, se organizo en el a&ntilde;o 2010 el primer curso para desarrollo de aplicaciones para el escritorio Sugar, el cuale es la interfaz gr&aacute;fica de usuario por defecto en el sistema operativo de las computadoras XO.</p>\r\n<p>&nbsp;</p>\r\n<p>Como resultado de esa primera experiencia se obtuvieron las primeras versiones de 3 aplicaciones orientados exclusivamente a las necesidades planteadas por profesores involucrados en el proyecto. Todo el c&oacute;digo fuente de estos 3 proyectos fue liberado como software libre con la idea de que otros paises de la regi&oacute;n puedan crear versiones localizadas de los mismos.</p>\r\n<p>&nbsp;</p>\r\n<p>Actualmente las versiones finales de los juegos han sido mejoradas por <a href=\"http://yadervblog.drupalgardens.com/\" target=\"_blank\">Yader Vel&aacute;squez</a>, quien ha hecho un gran esfuerzo por hacerlas mas f&aacute;ciles para los ni&ntilde;os y por crear nuevas funcionalidades.</p>\r\n<p>&nbsp;</p>\r\n<p><strong>Calendario</strong></p>\r\n<p>&nbsp;</p>\r\n<div class=\"na-media na-image-right image-191\"><img title=\"1311270768_calendario4.png\" src=\"http://photos.simas.org.ni/2011/07/288_1311270768_calendario4.png\" alt=\"\" />\r\n<div class=\"info\">\r\n<p>&nbsp;</p>\r\n</div>\r\n</div>\r\n<p>Aplicaci&oacute;n que permite llevar un registro de las actividades de los estudiantes como por ejemplo tareas a realizar, d&iacute;as de ex&aacute;menes o sistem&aacute;ticos etc. Tiene la funcionalidad de establecer prioridades y organizar por categor&iacute;as y colores cada tipo de actividad.</p>\r\n<p>&nbsp;</p>\r\n<p>Desarrollado por: <em>Yader Vel&aacute;squez</em></p>\r\n<p>Descagar : <a href=\"http://activities.sugarlabs.org/es-ES/sugar/addon/4360\" target=\"_blank\">activities.sugarlabs.org/es-ES/sugar/addon/4360</a></p>\r\n<p>&nbsp;</p>\r\n<p>&nbsp;</p>\r\n<p>&nbsp;</p>\r\n<p>&nbsp;</p>\r\n<p>&nbsp;</p>\r\n<p>&nbsp;</p>\r\n<p><strong>Sin dientes</strong></p>\r\n<p>&nbsp;</p>\r\n<div class=\"na-media na-image-right image-192\"><img title=\"1311270775_sd2.png\" src=\"http://photos.simas.org.ni/2011/07/288_1311270775_sd2.png\" alt=\"\" />\r\n<div class=\"info\">\r\n<p>&nbsp;</p>\r\n</div>\r\n</div>\r\n<p>Es un juego que sigue la misma l&oacute;gica del cl&aacute;sico juego del ahorcado, pero en ves de que el personaje muera al final, cada vez que el estudiante se equivoca el personaje en pantalla pierde un diente.</p>\r\n<p>&nbsp;</p>\r\n<p>Desarrollo Inicial: <em>Adolfo Fitoria, Yader Vel&aacute;squez, Byron Corrales, Eduardo Rosales, Marcelo Gutierrez, Walter Vargas, Juan Carrillo, Yuri Gonsalez.</em></p>\r\n<p>Desarrollo de nuevas funcionalidades: <em>Yader Vel&aacute;squez</em></p>\r\n<p>Descargar : <a href=\"http://git.sugarlabs.org/~yaderv/ahorcado/sin_dientes\" target=\"_blank\">git.sugarlabs.org/~yaderv/ahorcado/sin_dientes</a></p>\r\n<p>&nbsp;</p>\r\n<p>&nbsp;</p>\r\n<p><strong>Conozco Nicaragua</strong></p>\r\n<p>&nbsp;</p>\r\n<div class=\"na-media na-image-right image-190\"><img title=\"1311270759_xoconozco.png\" src=\"http://photos.simas.org.ni/2011/07/288_1311270759_xoconozco.png\" alt=\"\" />\r\n<div class=\"info\">\r\n<p>&nbsp;</p>\r\n</div>\r\n</div>\r\n<p>Juego para ambientar a estudiantes en la geograf&iacute;a del pa&iacute;s de forma interactiva. El juego se basa en ayudar a un personaje a encontrar las piezas de su nave perdida. Se explora en los departamentos, r&iacute;os y volcanes de nuestro pa&iacute;s.</p>\r\n<p>&nbsp;</p>\r\n<p>Creado a partir de proyecto Conozco Uruguay:&nbsp;<a href=\"http://wiki.laptop.org/go/Conozco_Uruguay\" target=\"_blank\">wiki.laptop.org/go/Conozco_Uruguay</a></p>\r\n<p>Desarrollo Inicial: <em>Byron Corrales</em></p>\r\n<p>Base de conocimiento: <em>Karla Montenegro</em></p>\r\n<p>Desarrollo de nuevas funcionalidades: <em>Yader Vel&aacute;squez</em></p>\r\n<p>Descargar en: <a href=\"http://git.sugarlabs.org/~yaderv/conozco-nicaragua/conozco-nicaragua-yader\" target=\"_blank\">git.sugarlabs.org/~yaderv/conozco-nicaragua/conozco-nicaragua-yader</a></p>\r\n<p>&nbsp;</p>\r\n<p>&nbsp;</p>\r\n<p>&nbsp;</p>\r\n<p>&nbsp;</p>\r\n<p>Mas informaci&oacute;n:</p>\r\n<p><a href=\"http://www.fundacionzt.org/fzt/index.htm\" target=\"_blank\">www.fundacionzt.org/fzt/index.htm</a></p>\r\n<p><a href=\"http://yadervblog.drupalgardens.com/content/sugar-news-nicaragua\" target=\"_blank\">yadervblog.drupalgardens.com/content/sugar-news-nicaragua</a></p>\r\n<p><a href=\"http://byroncorrales.blogspot.com/2010/11/conozco-nicaragua-actividad-para-sugar.html\" target=\"_blank\">byroncorrales.blogspot.com/2010/11/conozco-nicaragua-actividad-para-sugar.html</a></p>", 
    "idcatblog": 3, 
    "resumen": "Nicaragua adem\u00e1s de presentarse como un modelo centro americano en la distribuci\u00f3n y capacitaci\u00f3n en el uso de computadoras XO en diferentes escuelas del pa\u00eds, ahora tambi\u00e9n se destaca creando nuevos juegos para esta plataforma y localizarlos a las necesidades de las escuelas primarias del pa\u00eds.", 
    "tags": "Sugar, Olpc, Software Libre, Actividades"
  }
},
{
  "pk": 34, 
  "model": "blogs.blog", 
  "fields": {
    "foto": "", 
    "resumen_en": "", 
    "video1": "", 
    "descripcion_en": "", 
    "uri": "hacia-una-politica-20-potencialidades-y-limites-de-la-red-de-redes", 
    "video2": "", 
    "fecha": "2011-11-15", 
    "idautor": 14, 
    "pie": null, 
    "blog_en": "", 
    "blog": "\u00bfHacia una pol\u00edtica 2.0?. Potencialidades y l\u00edmites de la red de redes.", 
    "uri_en": "", 
    "descripcion": "<p style=\"text-align: center;\">&nbsp;</p>\r\n<div class=\"na-media na-image-normal image-306\">\r\n<div class=\"info\">\r\n<p>Tomado de Internet</p>\r\n</div>\r\n</div>\r\n<p style=\"text-align: center;\"><img class=\"aligncenter\" title=\"1321389314_blog68img01.jpg\" src=\"http://photos.simas.org.ni/2011/11/600x400_1321389314_blog68img01.jpg\" alt=\"\" width=\"551\" height=\"398\" /></p>\r\n<p>&nbsp;</p>\r\n<p><strong><em>\"La expresi&oacute;n &laquo;web 2.0&raquo; designa una nueva etapa, o una nueva generaci&oacute;n, en el desarrollo de internet. El intercambio de informaci&oacute;n resulta m&aacute;s expedito que antes. Especialmente, como suelen subrayar muchos apologistas de esa nueva fase, ahora el usuario es el centro en internet.\"</em></strong></p>\r\n<p>&nbsp;</p>\r\n<p>Ra&uacute;l Trejo Delarbre, investigador del Instituto de Investigaciones Sociales de la Universidad Nacional Aut&oacute;noma de M&eacute;xico, escribe este interesante art&iacute;culo sobre el papel de la web 2.0, la asunci&oacute;n de algunas redes sociales y sus consideraciones sobre como poder hacer ciudadan&iacute;a hoy en nuetras sociedades latinoamericanas, con la herramienta del internet.<br /><br />M&aacute;s art&iacute;culos vinculados a este, se encuentran en la &uacute;ltima edici&oacute;n de la <a href=\"http://www.nuso.org/revistaActual.php?n=235\">Revista Nueva Sociedad.</a></p>", 
    "idcatblog": 3, 
    "resumen": "L", 
    "tags": "web 2.0, ciudadania, comunicaci\u00f3n, democracia"
  }
}
]
