[
{
  "pk": 2, 
  "model": "publicaciones.tipopublicacion", 
  "fields": {
    "tipopublicacion": "Libro", 
    "tipopublicacion_en": null
  }
},
{
  "pk": 5, 
  "model": "publicaciones.tipopublicacion", 
  "fields": {
    "tipopublicacion": "Revista", 
    "tipopublicacion_en": null
  }
},
{
  "pk": 7, 
  "model": "publicaciones.tipopublicacion", 
  "fields": {
    "tipopublicacion": "Documento", 
    "tipopublicacion_en": null
  }
},
{
  "pk": 10, 
  "model": "publicaciones.tipopublicacion", 
  "fields": {
    "tipopublicacion": "CD", 
    "tipopublicacion_en": null
  }
},
{
  "pk": 11, 
  "model": "publicaciones.tipopublicacion", 
  "fields": {
    "tipopublicacion": "DVD", 
    "tipopublicacion_en": null
  }
},
{
  "pk": 13, 
  "model": "publicaciones.tipopublicacion", 
  "fields": {
    "tipopublicacion": "DVD Audio", 
    "tipopublicacion_en": null
  }
}
]
