1,29,30
2,29,27
3,29,31
4,102,28
5,100,28
6,101,28
7,103,27
8,104,29
9,125,31
10,105,29
11,126,31
12,107,29
13,123,31
14,53,27
15,53,31
16,108,29
17,50,28
18,109,29
19,110,29
20,56,28
21,58,28
22,59,28
23,60,28
24,61,28
25,62,28
26,63,28
27,111,29
28,65,29
29,112,29
30,68,29
31,113,29
32,70,29
33,72,27
34,73,31
35,74,31
36,76,29
37,77,27
38,78,27
39,80,31
40,81,28
41,82,28
42,86,27
43,87,27
44,88,28
45,90,29
46,106,29
47,114,29
48,57,28
49,115,29
50,54,28
51,92,28
52,79,30
53,89,29
54,116,28
55,83,28
56,64,29
57,66,29
58,67,28
59,69,29
60,71,29
61,118,28
62,84,28
63,91,29
64,93,29
65,55,28
66,94,27
67,75,30
68,95,31
69,96,31
70,97,30
71,117,28
72,46,28
73,119,29
74,98,28
75,85,31
76,120,29
77,121,31
78,122,28
79,124,29
80,141,31
81,127,27
82,163,29
83,142,28
84,162,29
85,128,29
86,164,28
87,129,29
88,143,28
89,130,29
90,131,29
91,144,28
92,165,27
93,132,31
94,145,28
95,146,28
96,133,31
97,166,29
98,167,29
99,147,28
100,134,29
101,135,29
102,136,28
103,168,28
104,148,28
105,137,29
106,169,28
107,170,29
108,149,29
109,138,29
110,171,29
111,150,27
112,139,28
113,151,29
114,172,29
115,140,27
116,173,27
117,174,27
118,175,27
119,152,28
120,153,27
121,154,27
122,155,28
123,156,29
124,157,29
125,159,29
126,160,29
127,176,29
128,177,29
129,178,29
130,179,29
131,180,29
132,181,27